[
  {
    "ident": "SuperBLTAutoupdateExample",
    "version": "1.20",
    "download_url": "https://bitbucket.org/pd2-rs/superblt-autoupdate-example/downloads/SuperBLT_Autoupdate_Example.zip",
    "patchnotes_url": "https://modworkshop.net/mod/32110#changelog"
  }
]